{
  "myReview": [
    {
      "review_id": 2,
      "camp_id": 1,
      "author": "kicker",
      "content": "여기너무좋아요",
      "createdDate": "2021-11-30T23:31:26.764443",
      "lastModifiedDate": "2022-01-11T11:14:34.845039",
      "likes": 23,
      "rate": 4.3,
      "imgUrl": "www.gocamping.co.kr",
      "createdBy": "장대영",
      "lastModifedBy": "김상운"
    }
  ],

  "campSearch": [
    {
      "currentPage": 1,
      "totalPages": 1,
      "totalElements": 8,
      "content": [
        {
          "campId": "1",
          "addr1": "경상남도 창원시 의창구 북면 달천길, 150 ",
          "addr2": "달천공원오토캠핑장 ",
          "facltNm": "달천공원오토캠핑장 ",
          "firstImageUrl": "https://gocamping.or.kr/upload/camp/704/thumb/thumb_720_6835LN3Y4PG4YQDWJo1y7Vvr.jpg",
          "lineIntro": "사계절 서로 다른 매력의 캠핑을 즐길 수 있는 곳",
          "like": "30"
        }
      ]
    }
  ],

  "camp": {
    "addr1": "경상남도 창원시 의창구 북면 달천길 150 ",
    "animalCmgCl": "가능(소형견)",
    "autoSiteCo": 31,
    "caravSiteCo": 4,
    "glampSiteCo": 4,
    "doNm": "경상남도",
    "eqpmnLendCl": "텐트,화로대,난방기구,식기,침낭",
    "extshrCo": 50,
    "facltNm": "달천공원오토캠핑장 ",
    "featureNm": "천주산의 계곡이 좋고 도심과 가까움",
    "fireSensorCo": 0,
    "firstImageUrl": "https://gocamping.or.kr/upload/camp/704/thumb/thumb_720_6835LN3Y4PG4YQDWJo1y7Vvr.jpg",
    "homepage": "http://camp.changwon.go.kr/",
    "induty": "일반야영장,자동차야영장,카라반",
    "indvdlCaravSiteCo": 0,
    "intro": "달천공원 오토캠핑장은 창원시 북면 천주산 달천계곡에 위치하고 있다.",
    "lctCl": "산,숲,계곡,도심",
    "lineIntro": "사계절 서로 다른 매력의 캠핑을 즐길 수 있는 곳",
    "manageNmpr": 3,
    "mapX": 128.5998171,
    "mapY": 35.2822939,
    "operDeCl": "평일+주말",
    "operPdCl": "봄,여름,가을,겨울",
    "posblFcltyCl": "계곡 물놀이,산책로,강/물놀이",
    "resveCl": "온라인실시간예약",
    "resveUrl": "https://camp.changwon.go.kr/sub/03_02.jsp",
    "sbrsCl": "전기,무선인터넷,장작판매,온수,놀이터,운동시설",
    "sbrsEtc": "어란아 놀이기구 소량 에어바운스",
    "sigunguNm": "창원시",
    "tel": "055-262-0752",
    "themaEnvrnCl": "일출명소,일몰명소,봄꽃여행,여름물놀이,걷기길",
    "toiletCo": 1,
    "trlerAcmpnyAt": "Y",
    "wtrplCo": 1,
    "glampInnerFclty": "침대, TV, 에어컨, 냉장고",
    "caravInnerFclty": "침대, TV, 에어컨, 냉장고",
    "like_cnt": 13,
    "sitedStnc": 0,
    "swrmCo": 1,
    "rate": 4.0
  },

  "campReview": [
    {
      "currentPage": 1,
      "totalPages": 2,
      "totalElements": 24,
      "contents": [
        {
          "review_id": 2,
          "camp_id": 1,
          "author": "kicker",
          "content": "여기너무좋아요",
          "createdDate": "2021-11-30T23:31:26.764443",
          "lastModifiedDate": "2022-01-11T11:14:34.845039",
          "likes": 23,
          "rate": 4.3,
          "imgUrl": "www.gocamping.co.kr",
          "createdBy": "장대영",
          "lastModifedBy": "김상운"
        },
        {
          "review_id": 3,
          "camp_id": 1,
          "author": "kicker",
          "content": "여기너무좋아요",
          "createdDate": "2021-11-30T23:31:26.764443",
          "lastModifiedDate": "2022-01-11T11:14:34.845039",
          "likes": 23,
          "rate": 4.3,
          "imgUrl": "www.naver.co.kr",
          "createdBy": "장대영",
          "lastModifedBy": "김상운"
        },
        {
          "review_id": 3,
          "camp_id": 1,
          "author": "kicker",
          "content": "여기너무좋아요",
          "createdDate": "2021-11-30T23:31:26.764443",
          "lastModifiedDate": "2022-01-11T11:14:34.845039",
          "likes": 23,
          "rate": 4.3,
          "imgUrl": "www.naver.co.kr",
          "createdBy": "장대영",
          "lastModifedBy": "김상운"
        },
        {
          "review_id": 3,
          "camp_id": 1,
          "author": "kicker",
          "content": "여기너무좋아요",
          "createdDate": "2021-11-30T23:31:26.764443",
          "lastModifiedDate": "2022-01-11T11:14:34.845039",
          "likes": 23,
          "rate": 4.3,
          "imgUrl": "www.naver.co.kr",
          "createdBy": "장대영",
          "lastModifedBy": "김상운"
        },
        {
          "review_id": 3,
          "camp_id": 1,
          "author": "kicker",
          "content": "여기너무좋아요",
          "createdDate": "2021-11-30T23:31:26.764443",
          "lastModifiedDate": "2022-01-11T11:14:34.845039",
          "likes": 23,
          "rate": 4.3,
          "imgUrl": "www.naver.co.kr",
          "createdBy": "장대영",
          "lastModifedBy": "김상운"
        }
      ]
    }
  ],

  "bestReview": [
    {
      "review_id": 2,
      "camp_id": 1,
      "address": "인천시 강화군",
      "detailAddress": "달천공원오토캠핑장",
      "content": "여기너무좋아요",
      "rate": 4.3,
      "imgUrl": "www.gocamping.co.kr",
      "createdDate": "2022-01-24:20:03:23:0023",
      "lastModifiedDate": "2022-01-25:20:03:23:0023",
      "createdBy": "장대영",
      "lastModifedBy": "김상운"
    }
  ]
}
